0,-87,0,-79.5,-75,-70,-66.86363636363636,-67.08965517241371,-84.43355566957408,-170.4475839475839,-133.3565820465847,-141.150798344175,-120.5634999999998,-114.0821744627054,-115.0770975056689,-68.36644591611481,-27.97180327868853,-23.72359777665486,-19.70213623538896,-15.82608695652173,-11.863539445629,-8.153179190751455,-3.744082428292955,-1.170097508125678
0,0,-83.66666666666667,-78,-76.33333333333333,-71,-66.89655172413794,-64.86380520016509,-78.28987730061353,-140.5549278091648,-154.8290662650601,-121.6340229368112,-115.3262016965129,-105.9035882566148,-105.9357997823722,-59.05466502260584,-27.84880636604774,-23.68051376996066,-19.67098092643054,-15.67205155367232,-12.53556034482759,-7.649868475702617,-3.718510694481119,-1.16962843295638
0,0,-83,-81,-76,-71.5,-66.88333333333334,-66.77878103837473,-73.56357420947697,-124.5486189935677,-135.3378932968533,-123.4249408983452,-116.3183213920163,-112.3759431868619,-102.7824276950043,-60.16774193548387,-27.45795044783065,-23.69712601326455,-19.69654841802494,-15.85813630041724,-11.84302566225169,-7.657458563535911,-3.817967830521773,-1.177480916030534
