-280.5,-181.7777777777778,-146.2,-183.9166666666667,-130.7777777777778,-103.5208333333333,-84.34615384615385,-69.43164362519217,-120.0542153269112,-143.6056349081768,-148.4421963024674,-151.1979493617912,-155.9709976798144,-178.2989583333333,-103.4438312670094,-102.1251607372482,-129.7733333333334,-137.825,-127.4,-221.4,-164,-202.6666666666667,-325,0
-201,-222.3333333333333,-140.25,-165.25,-124.75,-99.95652173913044,-78.12947658402202,-68.95293495505031,-128.2374326750449,-152.9718433787946,-157.2556770395289,-169.7027896995708,-152.065339002014,-146.5806252570958,-127.8335086796425,-106.6319444444445,-120.3380281690141,-129.5,-191.1428571428571,-152.3636363636364,-232.25,-208.2,-325,0
-163.8571428571429,-129.8421052631579,-115.1315789473684,-113.1176470588235,-90.8068181818182,-84.10101010101013,-85.73282442748092,-67.76559221819504,-136.3376068376068,-150.5798390512497,-154.2726092600607,-155.3183431952664,-157.392991239049,-160.5089947089947,-118.1825366955212,-103.4579831932773,-110.7138263665595,-176.2222222222222,-106.9090909090909,-157,-172.4,-208.6666666666667,0,0
